Project of predictive business and finance
…
3. Generate naive forecasts for all series for the validation
period.

fit_model <- train %>%
  group_by(series)%>%
  model(NAIVE = NAIVE(value))

forecast <- fit_model %>%
  forecast(h=4)
forecast

## # A fable: 84 x 5 [1]
## # Key:     series, .model [21]
##    series .model Row_Year              value  .mean
##    <chr>  <chr>     <dbl>             <dist>  <dbl>
##  1 Y102   NAIVE        25  N(8e+05, 3.1e+09) 802705
##  2 Y102   NAIVE        26  N(8e+05, 6.3e+09) 802705
##  3 Y102   NAIVE        27  N(8e+05, 9.4e+09) 802705
##  4 Y102   NAIVE        28  N(8e+05, 1.3e+10) 802705
##  5 Y103   NAIVE        25 N(210899, 1.7e+08) 210899
##  6 Y103   NAIVE        26 N(210899, 3.4e+08) 210899
##  7 Y103   NAIVE        27 N(210899, 5.1e+08) 210899
##  8 Y103   NAIVE        28 N(210899, 6.8e+08) 210899
##  9 Y104   NAIVE        25 N(172166, 5.2e+08) 172166
## 10 Y104   NAIVE        26   N(172166, 1e+09) 172166
## #  74 more rows

augment(fit_model) 

## # A tsibble: 504 x 7 [1]
## # Key:       series, .model [21]
##    series .model Row_Year  value .fitted .resid .innov
##    <chr>  <chr>     <dbl>  <int>   <int>  <int>  <int>
##  1 Y102   NAIVE         1 238605      NA     NA     NA
##  2 Y102   NAIVE         2 254186  238605  15581  15581
##  3 Y102   NAIVE         3 284642  254186  30456  30456
##  4 Y102   NAIVE         4 303583  284642  18941  18941
##  5 Y102   NAIVE         5 346910  303583  43327  43327
##  6 Y102   NAIVE         6 372133  346910  25223  25223
##  7 Y102   NAIVE         7 377853  372133   5720   5720
##  8 Y102   NAIVE         8 451566  377853  73713  73713
##  9 Y102   NAIVE         9 562764  451566 111198 111198
## 10 Y102   NAIVE        10 638168  562764  75404  75404
## #  494 more rows
…
